#microcontroller time [micro seconds],iTow[ms],utc[year:month:day:hour:minute:second],fixType[0-5],longitude[deg],latitude[deg],height[mm],velN[mm/s],velE[mm/s],velD[mm/s],gSpeed[mm/s],headMot[deg1e-5],pDop[],numSV[],ttff[ms],ambientTemp[C],objectTemp[C],gpsFlag[]#
3500257,5400,2015:10:18:0:0:5,0,0,0,0,0,0,0,0,0,9999,0,4026859520,26.61,26.35,0
3601077,5500,2015:10:18:0:0:5,0,0,0,0,0,0,0,0,0,9999,0,4026859520,26.61,26.35,0
3700265,5600,2015:10:18:0:0:5,0,0,0,0,0,0,0,0,0,9999,0,4026859520,26.61,26.35,0
3801126,5700,2015:10:18:0:0:5,0,0,0,0,0,0,0,0,0,9999,0,4026859520,26.61,26.35,0
3900255,5800,2015:10:18:0:0:5,0,0,0,0,0,0,0,0,0,9999,0,4026859520,26.61,26.35,0
4001165,5900,2015:10:18:0:0:5,0,0,0,0,0,0,0,0,0,9999,0,4026859520,26.61,26.35,0
4100304,6000,2015:10:18:0:0:6,0,0,0,0,0,0,0,0,0,9999,0,4026925056,26.61,26.35,0
4201150,6100,2015:10:18:0:0:6,0,0,0,0,0,0,0,0,0,9999,0,4026925056,26.63,26.23,0
4300320,6200,2015:10:18:0:0:6,0,0,0,0,0,0,0,0,0,9999,0,4026925056,26.63,26.23,0
4401167,6300,2015:10:18:0:0:6,0,0,0,0,0,0,0,0,0,9999,0,4026925056,26.63,26.23,0
4500331,6400,2015:10:18:0:0:6,0,0,0,0,0,0,0,0,0,9999,0,4026925056,26.63,26.23,0
4601070,6500,2015:10:18:0:0:6,0,0,0,0,0,0,0,0,0,9999,0,4026925056,26.63,26.23,0
4700390,6600,2015:10:18:0:0:6,0,0,0,0,0,0,0,0,0,9999,0,4026925056,26.63,26.23,0
4801333,6700,2015:10:18:0:0:6,0,0,0,0,0,0,0,0,0,9999,0,4026925056,26.63,26.23,0
4900381,6800,2015:10:18:0:0:6,0,0,0,0,0,0,0,0,0,9999,0,4026925056,26.63,26.23,0
5001241,6900,2015:10:18:0:0:6,0,0,0,0,0,0,0,0,0,9999,0,4026925056,26.61,26.15,0
5100396,7000,2015:10:18:0:0:7,0,0,0,0,0,0,0,0,0,9999,0,4026990592,26.61,26.15,0
5201254,7100,2015:10:18:0:0:7,0,0,0,0,0,0,0,0,0,9999,0,4026990592,26.61,26.15,0
5300435,7200,2015:10:18:0:0:7,0,0,0,0,0,0,0,0,0,9999,0,4026990592,26.61,26.15,0
5401275,7300,2015:10:18:0:0:7,0,0,0,0,0,0,0,0,0,9999,0,4026990592,26.61,26.15,0
5500454,7400,2015:10:18:0:0:7,0,0,0,0,0,0,0,0,0,9999,0,4026990592,26.61,26.15,0
5601414,7500,2015:10:18:0:0:7,0,0,0,0,0,0,0,0,0,9999,0,4026990592,26.61,26.15,0
5700446,7600,2015:10:18:0:0:7,0,0,0,0,0,0,0,0,0,9999,0,4026990592,26.63,26.59,0
5801317,7700,2015:10:18:0:0:7,0,0,0,0,0,0,0,0,0,9999,0,4026990592,26.63,26.59,0
5900327,7800,2015:10:18:0:0:7,0,0,0,0,0,0,0,0,0,9999,0,4026990592,26.63,26.59,0
6001333,7900,2015:10:18:0:0:7,0,0,0,0,0,0,0,0,0,9999,0,4026990592,26.63,26.59,0
6100505,8000,2015:10:18:0:0:8,0,0,0,0,0,0,0,0,0,9999,0,4027056128,26.63,26.59,0
6201360,8100,2015:10:18:0:0:8,0,0,0,0,0,0,0,0,0,9999,0,4027056128,26.63,26.59,0
6300534,8200,2015:10:18:0:0:8,0,0,0,0,0,0,0,0,0,9999,0,4027056128,26.63,26.59,0
6401494,8300,2015:10:18:0:0:8,0,0,0,0,0,0,0,0,0,9999,0,4027056128,26.63,26.59,0
6500559,8400,2015:10:18:0:0:8,0,0,0,0,0,0,0,0,0,9999,0,4027056128,26.63,27.37,0
6601359,8500,2015:10:18:0:0:8,0,0,0,0,0,0,0,0,0,9999,0,4027056128,26.63,27.37,0
6700554,8600,2015:10:18:0:0:8,0,0,0,0,0,0,0,0,0,9999,0,4027056128,26.63,27.37,0
6801419,8700,2015:10:18:0:0:8,0,0,0,0,0,0,0,0,0,9999,0,4027056128,26.63,27.37,0
6900582,8800,2015:10:18:0:0:8,0,0,0,0,0,0,0,0,0,9999,0,4027056128,26.63,27.37,0
7001448,8900,2015:10:18:0:0:8,0,0,0,0,0,0,0,0,0,9999,0,4027056128,26.63,27.37,0
7100627,9000,2015:10:18:0:0:9,0,0,0,0,0,0,0,0,0,9999,0,4027121664,26.63,27.37,0
7201416,9100,2015:10:18:0:0:9,0,0,0,0,0,0,0,0,0,9999,0,4027121664,26.59,26.23,0
7300643,9200,2015:10:18:0:0:9,0,0,0,0,0,0,0,0,0,9999,0,4027121664,26.59,26.23,0
7401494,9300,2015:10:18:0:0:9,0,0,0,0,0,0,0,0,0,9999,0,4027121664,26.59,26.23,0
7500648,9400,2015:10:18:0:0:9,0,0,0,0,0,0,0,0,0,9999,0,4027121664,26.59,26.23,0
7601503,9500,2015:10:18:0:0:9,0,0,0,0,0,0,0,0,0,9999,0,4027121664,26.59,26.23,0
7700694,9600,2015:10:18:0:0:9,0,0,0,0,0,0,0,0,0,9999,0,4027121664,26.59,26.23,0
7801526,9700,2015:10:18:0:0:9,0,0,0,0,0,0,0,0,0,9999,0,4027121664,26.59,26.23,0
7900708,9800,2015:10:18:0:0:9,0,0,0,0,0,0,0,0,0,9999,0,4027121664,26.59,26.23,0
8001668,9900,2015:10:18:0:0:9,0,0,0,0,0,0,0,0,0,9999,0,4027121664,26.63,26.73,0
8100717,10000,2015:10:18:0:0:10,0,0,0,0,0,0,0,0,0,9999,0,4027187200,26.63,26.73,0
8201724,10100,2015:10:18:0:0:10,0,0,0,0,0,0,0,0,0,9999,0,4027187200,26.63,26.73,0
8300765,10200,2015:10:18:0:0:10,0,0,0,0,0,0,0,0,0,9999,0,4027187200,26.63,26.73,0
8401589,10300,2015:10:18:0:0:10,0,0,0,0,0,0,0,0,0,9999,0,4027187200,26.63,26.73,0
8500626,10400,2015:10:18:0:0:10,0,0,0,0,0,0,0,0,0,9999,0,4027187200,26.63,26.73,0
8601634,10500,2015:10:18:0:0:10,0,0,0,0,0,0,0,0,0,9999,0,4027187200,26.63,26.73,0
8700825,10600,2015:10:18:0:0:10,0,0,0,0,0,0,0,0,0,9999,0,4027187200,26.63,25.93,0
8801756,10700,2015:10:18:0:0:10,0,0,0,0,0,0,0,0,0,9999,0,4027187200,26.63,25.93,0
8900838,10800,2015:10:18:0:0:10,0,0,0,0,0,0,0,0,0,9999,0,4027187200,26.63,25.93,0
9001655,10900,2015:10:18:0:0:10,0,0,0,0,0,0,0,0,0,9999,0,4027187200,26.63,25.93,0
9100849,11000,2015:10:18:0:0:11,0,0,0,0,0,0,0,0,0,9999,0,4027252736,26.63,25.93,0
9201692,11100,2015:10:18:0:0:11,0,0,0,0,0,0,0,0,0,9999,0,4027252736,26.63,25.93,0
9300910,11200,2015:10:18:0:0:11,0,0,0,0,0,0,0,0,0,9999,0,4027252736,26.63,25.93,0
9401728,11300,2015:10:18:0:0:11,0,0,0,0,0,0,0,0,0,9999,0,4027252736,26.63,25.93,0
9500908,11400,2015:10:18:0:0:11,0,0,0,0,0,0,0,0,0,9999,0,4027252736,26.67,26.61,0
9601837,11500,2015:10:18:0:0:11,0,0,0,0,0,0,0,0,0,9999,0,4027252736,26.67,26.61,0
9700903,11600,2015:10:18:0:0:11,0,0,0,0,0,0,0,0,0,9999,0,4027252736,26.67,26.61,0
9801621,11700,2015:10:18:0:0:11,0,0,0,0,0,0,0,0,0,9999,0,4027252736,26.67,26.61,0
9900929,11800,2015:10:18:0:0:11,0,0,0,0,0,0,0,0,0,9999,0,4027252736,26.67,26.61,0
10000933,11900,2015:10:18:0:0:11,0,0,0,0,0,0,0,0,0,9999,0,4027252736,26.67,26.61,0
10100970,12000,2015:10:18:0:0:12,0,0,0,0,0,0,0,0,0,9999,0,4027318272,26.67,26.61,0
10200953,12100,2015:10:18:0:0:12,0,0,0,0,0,0,0,0,0,9999,0,4027318272,26.61,26.53,0
10300978,12200,2015:10:18:0:0:12,0,0,0,0,0,0,0,0,0,9999,0,4027318272,26.61,26.53,0
10401059,12300,2015:10:18:0:0:12,0,0,0,0,0,0,0,0,0,9999,0,4027318272,26.61,26.53,0
10500989,12400,2015:10:18:0:0:12,0,0,0,0,0,0,0,0,0,9999,0,4027318272,26.61,26.53,0
10600995,12500,2015:10:18:0:0:12,0,0,0,0,0,0,0,0,0,9999,0,4027318272,26.61,26.53,0
10701030,12600,2015:10:18:0:0:12,0,0,0,0,0,0,0,0,0,9999,0,4027318272,26.61,26.53,0
10801006,12700,2015:10:18:0:0:12,0,0,0,0,0,0,0,0,0,9999,0,4027318272,26.61,26.53,0
10901035,12800,2015:10:18:0:0:12,0,0,0,0,0,0,0,0,0,9999,0,4027318272,26.61,26.53,0
11001059,12900,2015:10:18:0:0:12,0,0,0,0,0,0,0,0,0,9999,0,4027318272,26.63,27.99,0
11100885,13000,2015:10:18:0:0:13,0,0,0,0,0,0,0,0,0,9999,0,4027383808,26.63,27.99,0
11201150,13100,2015:10:18:0:0:13,0,0,0,0,0,0,0,0,0,9999,0,4027383808,26.63,27.99,0
11301098,13200,2015:10:18:0:0:13,0,0,0,0,0,0,0,0,0,9999,0,4027383808,26.63,27.99,0
11401081,13300,2015:10:18:0:0:13,0,0,0,0,0,0,0,0,0,9999,0,4027383808,26.63,27.99,0
11501092,13400,2015:10:18:0:0:13,0,0,0,0,0,0,0,0,0,9999,0,4027383808,26.63,27.99,0
11601120,13500,2015:10:18:0:0:13,0,0,0,0,0,0,0,0,0,9999,0,4027383808,26.63,27.99,0
11701941,13600,2015:10:18:0:0:13,0,0,0,0,0,0,0,0,0,9999,0,4027383808,26.65,26.55,0
11801128,13700,2015:10:18:0:0:13,0,0,0,0,0,0,0,0,0,9999,0,4027383808,26.65,26.55,0
11901982,13800,2015:10:18:0:0:13,0,0,0,0,0,0,0,0,0,9999,0,4027383808,26.65,26.55,0
12001223,13900,2015:10:18:0:0:13,0,0,0,0,0,0,0,0,0,9999,0,4027383808,26.65,26.55,0
12102009,14000,2015:10:18:0:0:14,0,0,0,0,0,0,0,0,0,9999,0,4027449344,26.65,26.55,0
12201177,14100,2015:10:18:0:0:14,0,0,0,0,0,0,0,0,0,9999,0,4027449344,26.65,26.55,0
12302010,14200,2015:10:18:0:0:14,0,0,0,0,0,0,0,0,0,9999,0,4027449344,26.65,26.55,0
12401027,14300,2015:10:18:0:0:14,0,0,0,0,0,0,0,0,0,9999,0,4027449344,26.65,26.55,0
12502041,14400,2015:10:18:0:0:14,0,0,0,0,0,0,0,0,0,9999,0,4027449344,26.59,26.99,0
12601201,14500,2015:10:18:0:0:14,0,0,0,0,0,0,0,0,0,9999,0,4027449344,26.59,26.99,0
12702062,14600,2015:10:18:0:0:14,0,0,0,0,0,0,0,0,0,9999,0,4027449344,26.59,26.99,0
12801315,14700,2015:10:18:0:0:14,0,0,0,0,0,0,0,0,0,9999,0,4027449344,26.59,26.99,0
12902070,14800,2015:10:18:0:0:14,0,0,0,0,0,0,0,0,0,9999,0,4027449344,26.59,26.99,0
13001252,14900,2015:10:18:0:0:14,0,0,0,0,0,0,0,0,0,9999,0,4027449344,26.59,26.99,0
13102087,15000,2015:10:18:0:0:15,0,0,0,0,0,0,0,0,0,9999,0,4027514880,26.59,26.99,0
13201257,15100,2015:10:18:0:0:15,0,0,0,0,0,0,0,0,0,9999,0,4027514880,26.63,30.25,0
13302122,15200,2015:10:18:0:0:15,0,0,0,0,0,0,0,0,0,9999,0,4027514880,26.63,30.25,0
13401314,15300,2015:10:18:0:0:15,0,0,0,0,0,0,0,0,0,9999,0,4027514880,26.63,30.25,0
13502137,15400,2015:10:18:0:0:15,0,0,0,0,0,0,0,0,0,9999,0,4027514880,26.63,30.25,0
13601398,15500,2015:10:18:0:0:15,0,0,0,0,0,0,0,0,0,9999,0,4027514880,26.63,30.25,0
13702048,15600,2015:10:18:0:0:15,0,0,0,0,0,0,0,0,0,9999,0,4027514880,26.63,30.25,0
13801327,15700,2015:10:18:0:0:15,0,0,0,0,0,0,0,0,0,9999,0,4027514880,26.63,30.25,0
13902190,15800,2015:10:18:0:0:15,0,0,0,0,0,0,0,0,0,9999,0,4027514880,26.63,30.25,0
14001372,15900,2015:10:18:0:0:15,0,0,0,0,0,0,0,0,0,9999,0,4027514880,26.61,30.03,0
14102191,16000,2015:10:18:0:0:16,0,0,0,0,0,0,0,0,0,9999,0,4027580416,26.61,30.03,0
14201383,16100,2015:10:18:0:0:16,0,0,0,0,0,0,0,0,0,9999,0,4027580416,26.61,30.03,0
14302236,16200,2015:10:18:0:0:16,0,0,0,0,0,0,0,0,0,9999,0,4027580416,26.61,30.03,0
14401472,16300,2015:10:18:0:0:16,0,0,0,0,0,0,0,0,0,9999,0,4027580416,26.61,30.03,0
14502248,16400,2015:10:18:0:0:16,0,0,0,0,0,0,0,0,0,9999,0,4027580416,26.61,30.03,0
14601441,16500,2015:10:18:0:0:16,0,0,0,0,0,0,0,0,0,9999,0,4027580416,26.61,30.03,0
14702264,16600,2015:10:18:0:0:16,0,0,0,0,0,0,0,0,0,9999,0,4027580416,26.63,27.05,0
14801473,16700,2015:10:18:0:0:16,0,0,0,0,0,0,0,0,0,9999,0,4027580416,26.63,27.05,0
14902284,16800,2015:10:18:0:0:16,0,0,0,0,0,0,0,0,0,9999,0,4027580416,26.63,27.05,0
15001289,16900,2015:10:18:0:0:16,0,0,0,0,0,0,0,0,0,9999,0,4027580416,26.63,27.05,0
15102321,17000,2015:10:18:0:0:17,0,0,0,0,0,0,0,0,0,9999,0,4027645952,26.63,27.05,0
15201582,17100,2015:10:18:0:0:17,0,0,0,0,0,0,0,0,0,9999,0,4027645952,26.63,27.05,0
15301551,17200,2015:10:18:0:0:17,0,0,0,0,0,0,0,0,0,9999,0,4027645952,26.63,27.05,0
15401556,17300,2015:10:18:0:0:17,0,0,0,0,0,0,0,0,0,9999,0,4027645952,26.63,27.05,0
15501581,17400,2015:10:18:0:0:17,0,0,0,0,0,0,0,0,0,9999,0,4027645952,26.65,28.63,0
15601587,17500,2015:10:18:0:0:17,0,0,0,0,0,0,0,0,0,9999,0,4027645952,26.65,28.63,0
15701605,17600,2015:10:18:0:0:17,0,0,0,0,0,0,0,0,0,9999,0,4027645952,26.65,28.63,0
15801606,17700,2015:10:18:0:0:17,0,0,0,0,0,0,0,0,0,9999,0,4027645952,26.65,28.63,0
15901642,17800,2015:10:18:0:0:17,0,0,0,0,0,0,0,0,0,9999,0,4027645952,26.65,28.63,0
16001715,17900,2015:10:18:0:0:17,0,0,0,0,0,0,0,0,0,9999,0,4027645952,26.65,28.63,0
16101635,18000,2015:10:18:0:0:18,0,0,0,0,0,0,0,0,0,9999,0,4027711488,26.65,28.63,0
16201639,18100,2015:10:18:0:0:18,0,0,0,0,0,0,0,0,0,9999,0,4027711488,26.65,27.85,0
16301526,18200,2015:10:18:0:0:18,0,0,0,0,0,0,0,0,0,9999,0,4027711488,26.65,27.85,0
16401666,18300,2015:10:18:0:0:18,0,0,0,0,0,0,0,0,0,9999,0,4027711488,26.65,27.85,0
16501679,18400,2015:10:18:0:0:18,0,0,0,0,0,0,0,0,0,9999,0,4027711488,26.65,27.85,0
16601707,18500,2015:10:18:0:0:18,0,0,0,0,0,0,0,0,0,9999,0,4027711488,26.65,27.85,0
16701705,18600,2015:10:18:0:0:18,0,0,0,0,0,0,0,0,0,9999,0,4027711488,26.65,27.85,0
16801785,18700,2015:10:18:0:0:18,0,0,0,0,0,0,0,0,0,9999,0,4027711488,26.65,27.85,0
16901687,18800,2015:10:18:0:0:18,0,0,0,0,0,0,0,0,0,9999,0,4027711488,26.65,27.85,0
17001726,18900,2015:10:18:0:0:18,0,0,0,0,0,0,0,0,0,9999,0,4027711488,26.69,27.91,0
17102549,19000,2015:10:18:0:0:19,0,0,0,0,0,0,0,0,0,9999,0,4027777024,26.69,27.91,0
17201746,19100,2015:10:18:0:0:19,0,0,0,0,0,0,0,0,0,9999,0,4027777024,26.69,27.91,0
17302568,19200,2015:10:18:0:0:19,0,0,0,0,0,0,0,0,0,9999,0,4027777024,26.69,27.91,0
17401778,19300,2015:10:18:0:0:19,0,0,0,0,0,0,0,0,0,9999,0,4027777024,26.69,27.91,0
17502558,19400,2015:10:18:0:0:19,0,0,0,0,0,0,0,0,0,9999,0,4027777024,26.69,27.91,0
17601660,19500,2015:10:18:0:0:19,0,0,0,0,0,0,0,0,0,9999,0,4027777024,26.69,27.91,0
17702666,19600,2015:10:18:0:0:19,0,0,0,0,0,0,0,0,0,9999,0,4027777024,26.67,28.83,0
17801823,19700,2015:10:18:0:0:19,0,0,0,0,0,0,0,0,0,9999,0,4027777024,26.67,28.83,0
17902687,19800,2015:10:18:0:0:19,0,0,0,0,0,0,0,0,0,9999,0,4027777024,26.67,28.83,0
18001836,19900,2015:10:18:0:0:19,0,0,0,0,0,0,0,0,0,9999,0,4027777024,26.67,28.83,0
18101856,20000,2015:10:18:0:0:20,0,0,0,0,0,0,0,0,0,9999,0,4027842560,26.67,28.83,0
18201870,20100,2015:10:18:0:0:20,0,0,0,0,0,0,0,0,0,9999,0,4027842560,26.67,28.83,0
18301878,20200,2015:10:18:0:0:20,0,0,0,0,0,0,0,0,0,9999,0,4027842560,26.67,28.83,0
18401966,20300,2015:10:18:0:0:20,0,0,0,0,0,0,0,0,0,9999,0,4027842560,26.67,28.83,0
18501887,20400,2015:10:18:0:0:20,0,0,0,0,0,0,0,0,0,9999,0,4027842560,26.69,27.03,0
18601924,20500,2015:10:18:0:0:20,0,0,0,0,0,0,0,0,0,9999,0,4027842560,26.69,27.03,0
18701928,20600,2015:10:18:0:0:20,0,0,0,0,0,0,0,0,0,9999,0,4027842560,26.69,27.03,0
18801922,20700,2015:10:18:0:0:20,0,0,0,0,0,0,0,0,0,9999,0,4027842560,26.69,27.03,0
18901797,20800,2015:10:18:0:0:20,0,0,0,0,0,0,0,0,0,9999,0,4027842560,26.69,27.03,0
19001961,20900,2015:10:18:0:0:20,0,0,0,0,0,0,0,0,0,9999,0,4027842560,26.69,27.03,0
19101958,21000,2015:10:18:0:0:21,0,0,0,0,0,0,0,0,0,9999,0,4027908096,26.69,27.03,0
19202067,21100,2015:10:18:0:0:21,0,0,0,0,0,0,0,0,0,9999,0,4027908096,26.65,26.23,0
19301985,21200,2015:10:18:0:0:21,0,0,0,0,0,0,0,0,0,9999,0,4027908096,26.65,26.23,0
19401989,21300,2015:10:18:0:0:21,0,0,0,0,0,0,0,0,0,9999,0,4027908096,26.65,26.23,0
19502015,21400,2015:10:18:0:0:21,0,0,0,0,0,0,0,0,0,9999,0,4027908096,26.65,26.23,0
19602011,21500,2015:10:18:0:0:21,0,0,0,0,0,0,0,0,0,9999,0,4027908096,26.65,26.23,0
19702020,21600,2015:10:18:0:0:21,0,0,0,0,0,0,0,0,0,9999,0,4027908096,26.65,26.23,0
19802031,21700,2015:10:18:0:0:21,0,0,0,0,0,0,0,0,0,9999,0,4027908096,26.65,26.23,0
19902041,21800,2015:10:18:0:0:21,0,0,0,0,0,0,0,0,0,9999,0,4027908096,26.65,26.23,0
20002130,21900,2015:10:18:0:0:21,0,0,0,0,0,0,0,0,0,9999,0,4027908096,26.67,30.57,0
20102051,22000,2015:10:18:0:0:22,0,0,0,0,0,0,0,0,0,9999,0,4027973632,26.67,30.57,0
20201858,22100,2015:10:18:0:0:22,0,0,0,0,0,0,0,0,0,9999,0,4027973632,26.67,30.57,0
20302069,22200,2015:10:18:0:0:22,0,0,0,0,0,0,0,0,0,9999,0,4027973632,26.67,30.57,0
20402089,22300,2015:10:18:0:0:22,0,0,0,0,0,0,0,0,0,9999,0,4027973632,26.67,30.57,0
20502072,22400,2015:10:18:0:0:22,0,0,0,0,0,0,0,0,0,9999,0,4027973632,26.67,30.57,0
20602117,22500,2015:10:18:0:0:22,0,0,0,0,0,0,0,0,0,9999,0,4027973632,26.67,30.57,0
20702983,22600,2015:10:18:0:0:22,0,0,0,0,0,0,0,0,0,9999,0,4027973632,26.67,26.11,0
20802214,22700,2015:10:18:0:0:22,0,0,0,0,0,0,0,0,0,9999,0,4027973632,26.67,26.11,0
20902952,22800,2015:10:18:0:0:22,0,0,0,0,0,0,0,0,0,9999,0,4027973632,26.67,26.11,0
21002153,22900,2015:10:18:0:0:22,0,0,0,0,0,0,0,0,0,9999,0,4027973632,26.67,26.11,0
21102982,23000,2015:10:18:0:0:23,0,0,0,0,0,0,0,0,0,9999,0,4028039168,26.67,26.11,0
21202179,23100,2015:10:18:0:0:23,0,0,0,0,0,0,0,0,0,9999,0,4028039168,26.67,26.11,0
21303002,23200,2015:10:18:0:0:23,0,0,0,0,0,0,0,0,0,9999,0,4028039168,26.67,26.11,0
21402208,23300,2015:10:18:0:0:23,0,0,0,0,0,0,0,0,0,9999,0,4028039168,26.67,26.11,0
21502092,23400,2015:10:18:0:0:23,0,0,0,0,0,0,0,0,0,9999,0,4028039168,26.73,30.85,0
21602322,23500,2015:10:18:0:0:23,0,0,0,0,0,0,0,0,0,9999,0,4028039168,26.73,30.85,0
21702250,23600,2015:10:18:0:0:23,0,0,0,0,0,0,0,0,0,9999,0,4028039168,26.73,30.85,0
21802253,23700,2015:10:18:0:0:23,0,0,0,0,0,0,0,0,0,9999,0,4028039168,26.73,30.85,0
21902257,23800,2015:10:18:0:0:23,0,0,0,0,0,0,0,0,0,9999,0,4028039168,26.73,30.85,0
22002295,23900,2015:10:18:0:0:23,0,0,0,0,0,0,0,0,0,9999,0,4028039168,26.73,30.85,0
22102379,24000,2015:10:18:0:0:24,0,0,0,0,0,0,0,0,0,9999,0,4028104704,26.73,30.85,0
22202328,24100,2015:10:18:0:0:24,0,0,0,0,0,0,0,0,0,9999,0,4028104704,26.67,28.53,0
22302370,24200,2015:10:18:0:0:24,0,0,0,0,0,0,0,0,0,9999,0,4028104704,26.67,28.53,0
22402266,24300,2015:10:18:0:0:24,0,0,0,0,0,0,0,0,0,9999,0,4028104704,26.67,28.53,0
22502252,24400,2015:10:18:0:0:24,0,0,0,0,0,0,0,0,0,9999,0,4028104704,26.67,28.53,0
22603213,24500,2015:10:18:0:0:24,0,0,0,0,0,0,0,0,0,9999,0,4028104704,26.67,28.53,0
22702349,24600,2015:10:18:0:0:24,0,0,0,0,0,0,0,0,0,9999,0,4028104704,26.67,28.53,0
22803313,24700,2015:10:18:0:0:24,0,0,0,0,0,0,0,0,0,9999,0,4028104704,26.67,28.53,0
22902584,24800,2015:10:18:0:0:24,0,0,0,0,0,0,0,0,0,9999,0,4028104704,26.67,28.53,0
23003284,24900,2015:10:18:0:0:24,0,0,0,0,0,0,0,0,0,9999,0,4028104704,26.69,26.09,0
23102521,25000,2015:10:18:0:0:25,0,0,0,0,0,0,0,0,0,9999,0,4028170240,26.69,26.09,0
23203416,25100,2015:10:18:0:0:25,0,0,0,0,0,0,0,0,0,9999,0,4028170240,26.69,26.09,0
23302537,25200,2015:10:18:0:0:25,0,0,0,0,0,0,0,0,0,9999,0,4028170240,26.69,26.09,0
23402555,25300,2015:10:18:0:0:25,0,0,0,0,0,0,0,0,0,9999,0,4028170240,26.69,26.09,0
23502568,25400,2015:10:18:0:0:25,0,0,0,0,0,0,0,0,0,9999,0,4028170240,26.69,26.09,0
23602578,25500,2015:10:18:0:0:25,0,0,0,0,0,0,0,0,0,9999,0,4028170240,26.69,26.09,0
23702706,25600,2015:10:18:0:0:25,0,0,0,0,0,0,0,0,0,9999,0,4028170240,26.73,26.79,0
23802602,25700,2015:10:18:0:0:25,0,0,0,0,0,0,0,0,0,9999,0,4028170240,26.73,26.79,0
23903623,25800,2015:10:18:0:0:25,0,0,0,0,0,0,0,0,0,9999,0,4028170240,26.73,26.79,0
24002607,25900,2015:10:18:0:0:25,0,0,0,0,0,0,0,0,0,9999,0,4028170240,26.73,26.79,0
24103388,26000,2015:10:18:0:0:26,0,0,0,0,0,0,0,0,0,9999,0,4028235776,26.73,26.79,0
24202634,26100,2015:10:18:0:0:26,0,0,0,0,0,0,0,0,0,9999,0,4028235776,26.73,26.79,0
24303542,26200,2015:10:18:0:0:26,0,0,0,0,0,0,0,0,0,9999,0,4028235776,26.73,26.79,0
24402634,26300,2015:10:18:0:0:26,0,0,0,0,0,0,0,0,0,9999,0,4028235776,26.73,26.79,0
24502795,26400,2015:10:18:0:0:26,0,0,0,0,0,0,0,0,0,9999,0,4028235776,26.75,30.29,0
24602672,26500,2015:10:18:0:0:26,0,0,0,0,0,0,0,0,0,9999,0,4028235776,26.75,30.29,0
24702697,26600,2015:10:18:0:0:26,0,0,0,0,0,0,0,0,0,9999,0,4028235776,26.75,30.29,0
24802705,26700,2015:10:18:0:0:26,0,0,0,0,0,0,0,0,0,9999,0,4028235776,26.75,30.29,0
24902714,26800,2015:10:18:0:0:26,0,0,0,0,0,0,0,0,0,9999,0,4028235776,26.75,30.29,0
25002698,26900,2015:10:18:0:0:26,0,0,0,0,0,0,0,0,0,9999,0,4028235776,26.75,30.29,0
25102723,27000,2015:10:18:0:0:27,0,0,0,0,0,0,0,0,0,9999,0,4028301312,26.75,30.29,0
25202715,27100,2015:10:18:0:0:27,0,0,0,0,0,0,0,0,0,9999,0,4028301312,26.67,26.77,0
25302868,27200,2015:10:18:0:0:27,0,0,0,0,0,0,0,0,0,9999,0,4028301312,26.67,26.77,0
25403510,27300,2015:10:18:0:0:27,0,0,0,0,0,0,0,0,0,9999,0,4028301312,26.67,26.77,0
25502733,27400,2015:10:18:0:0:27,0,0,0,0,0,0,0,0,0,9999,0,4028301312,26.67,26.77,0
25602799,27500,2015:10:18:0:0:27,0,0,0,0,0,0,0,0,0,9999,0,4028301312,26.67,26.77,0
25702731,27600,2015:10:18:0:0:27,0,0,0,0,0,0,0,0,0,9999,0,4028301312,26.67,26.77,0
25802792,27700,2015:10:18:0:0:27,0,0,0,0,0,0,0,0,0,9999,0,4028301312,26.67,26.77,0
25902817,27800,2015:10:18:0:0:27,0,0,0,0,0,0,0,0,0,9999,0,4028301312,26.67,26.77,0
26002829,27900,2015:10:18:0:0:27,0,0,0,0,0,0,0,0,0,9999,0,4028301312,26.63,31.05,0
26102958,28000,2015:10:18:0:0:28,0,0,0,0,0,0,0,0,0,9999,0,4028366848,26.63,31.05,0
26202844,28100,2015:10:18:0:0:28,0,0,0,0,0,0,0,0,0,9999,0,4028366848,26.63,31.05,0
26302857,28200,2015:10:18:0:0:28,0,0,0,0,0,0,0,0,0,9999,0,4028366848,26.63,31.05,0
26402867,28300,2015:10:18:0:0:28,0,0,0,0,0,0,0,0,0,9999,0,4028366848,26.63,31.05,0
26502868,28400,2015:10:18:0:0:28,0,0,0,0,0,0,0,0,0,9999,0,4028366848,26.63,31.05,0
26603874,28500,2015:10:18:0:0:28,0,0,0,0,0,0,0,0,0,9999,0,4028366848,26.63,31.05,0
26702783,28600,2015:10:18:0:0:28,0,0,0,0,0,0,0,0,0,9999,0,4028366848,26.71,30.53,0
26803809,28700,2015:10:18:0:0:28,0,0,0,0,0,0,0,0,0,9999,0,4028366848,26.71,30.53,0
26903045,28800,2015:10:18:0:0:28,0,0,0,0,0,0,0,0,0,9999,0,4028366848,26.71,30.53,0
27003826,28900,2015:10:18:0:0:28,0,0,0,0,0,0,0,0,0,9999,0,4028366848,26.71,30.53,0
27102933,29000,2015:10:18:0:0:29,0,0,0,0,0,0,0,0,0,9999,0,4028432384,26.71,30.53,0
27202944,29100,2015:10:18:0:0:29,0,0,0,0,0,0,0,0,0,9999,0,4028432384,26.71,30.53,0
27302963,29200,2015:10:18:0:0:29,0,0,0,0,0,0,0,0,0,9999,0,4028432384,26.71,30.53,0
27402975,29300,2015:10:18:0:0:29,0,0,0,0,0,0,0,0,0,9999,0,4028432384,26.71,30.53,0
27502990,29400,2015:10:18:0:0:29,0,0,0,0,0,0,0,0,0,9999,0,4028432384,26.67,31.11,0
27602988,29500,2015:10:18:0:0:29,0,0,0,0,0,0,0,0,0,9999,0,4028432384,26.67,31.11,0
27703120,29600,2015:10:18:0:0:29,0,0,0,0,0,0,0,0,0,9999,0,4028432384,26.67,31.11,0
27803026,29700,2015:10:18:0:0:29,0,0,0,0,0,0,0,0,0,9999,0,4028432384,26.67,31.11,0
27903029,29800,2015:10:18:0:0:29,0,0,0,0,0,0,0,0,0,9999,0,4028432384,26.67,31.11,0
28002924,29900,2015:10:18:0:0:29,0,0,0,0,0,0,0,0,0,9999,0,4028432384,26.67,31.11,0
28104010,30000,2015:10:18:0:0:30,0,0,0,0,0,0,0,0,0,9999,0,4028497920,26.67,31.11,0
28203015,30100,2015:10:18:0:0:30,0,0,0,0,0,0,0,0,0,9999,0,4028497920,26.67,30.93,0
28303084,30200,2015:10:18:0:0:30,0,0,0,0,0,0,0,0,0,9999,0,4028497920,26.67,30.93,0
28403011,30300,2015:10:18:0:0:30,0,0,0,0,0,0,0,0,0,9999,0,4028497920,26.67,30.93,1
28503899,30400,2015:10:18:0:0:30,0,0,0,0,0,0,0,0,0,9999,0,4028497920,26.67,30.93,1
28602893,30500,2015:10:18:0:0:30,0,0,0,0,0,0,0,0,0,9999,0,4028497920,26.67,30.93,1
28703652,30600,2015:10:18:0:0:30,0,0,0,0,0,0,0,0,0,9999,0,4028497920,26.67,30.93,1
28802772,30700,2015:10:18:0:0:30,0,0,0,0,0,0,0,0,0,9999,0,4028497920,26.67,30.93,1
28904170,30800,2015:10:18:0:0:30,0,0,0,0,0,0,0,0,0,9999,0,4028497920,26.67,30.93,1
29003266,30900,2015:10:18:0:0:30,0,0,0,0,0,0,0,0,0,9999,0,4028497920,26.67,30.57,1
29104113,31000,2015:10:18:0:0:31,0,0,0,0,0,0,0,0,0,9999,0,4028563456,26.67,30.57,1
29203203,31100,2015:10:18:0:0:31,0,0,0,0,0,0,0,0,0,9999,0,4028563456,26.67,30.57,1
29303151,31200,2015:10:18:0:0:31,0,0,0,0,0,0,0,0,0,9999,0,4028563456,26.67,30.57,1
29403296,31300,2015:10:18:0:0:31,0,0,0,0,0,0,0,0,0,9999,0,4028563456,26.67,30.57,1
29503291,31400,2015:10:18:0:0:31,0,0,0,0,0,0,0,0,0,9999,0,4028563456,26.67,30.57,0
29603296,31500,2015:10:18:0:0:31,0,0,0,0,0,0,0,0,0,9999,0,4028563456,26.67,30.57,0
29703424,31600,2015:10:18:0:0:31,0,0,0,0,0,0,0,0,0,9999,0,4028563456,26.69,27.95,0
29803335,31700,2015:10:18:0:0:31,0,0,0,0,0,0,0,0,0,9999,0,4028563456,26.69,27.95,0
29903325,31800,2015:10:18:0:0:31,0,0,0,0,0,0,0,0,0,9999,0,4028563456,26.69,27.95,0
30003337,31900,2015:10:18:0:0:31,0,0,0,0,0,0,0,0,0,9999,0,4028563456,26.69,27.95,0
30103340,32000,2015:10:18:0:0:32,0,0,0,0,0,0,0,0,0,9999,0,4028628992,26.69,27.95,0
30203356,32100,2015:10:18:0:0:32,0,0,0,0,0,0,0,0,0,9999,0,4028628992,26.69,27.95,0
30303375,32200,2015:10:18:0:0:32,0,0,0,0,0,0,0,0,0,9999,0,4028628992,26.69,27.95,0
30403372,32300,2015:10:18:0:0:32,0,0,0,0,0,0,0,0,0,9999,0,4028628992,26.69,27.95,0
30503511,32400,2015:10:18:0:0:32,0,0,0,0,0,0,0,0,0,9999,0,4028628992,26.67,28.05,1
30603317,32500,2015:10:18:0:0:32,0,0,0,0,0,0,0,0,0,9999,0,4028628992,26.67,28.05,1
30703420,32600,2015:10:18:0:0:32,0,0,0,0,0,0,0,0,0,9999,0,4028628992,26.67,28.05,1
30803411,32700,2015:10:18:0:0:32,0,0,0,0,0,0,0,0,0,9999,0,4028628992,26.67,28.05,1
30903434,32800,2015:10:18:0:0:32,0,0,0,0,0,0,0,0,0,9999,0,4028628992,26.67,28.05,1
31003442,32900,2015:10:18:0:0:32,0,0,0,0,0,0,0,0,0,9999,0,4028628992,26.67,28.05,1
31103466,33000,2015:10:18:0:0:33,0,0,0,0,0,0,0,0,0,9999,0,4028694528,26.67,28.05,1
31203469,33100,2015:10:18:0:0:33,0,0,0,0,0,0,0,0,0,9999,0,4028694528,26.73,28.11,1
31303593,33200,2015:10:18:0:0:33,0,0,0,0,0,0,0,0,0,9999,0,4028694528,26.73,28.11,1
31403492,33300,2015:10:18:0:0:33,0,0,0,0,0,0,0,0,0,9999,0,4028694528,26.73,28.11,1
31503500,33400,2015:10:18:0:0:33,0,0,0,0,0,0,0,0,0,9999,0,4028694528,26.73,28.11,0
31603501,33500,2015:10:18:0:0:33,0,0,0,0,0,0,0,0,0,9999,0,4028694528,26.73,28.11,0
31703532,33600,2015:10:18:0:0:33,0,0,0,0,0,0,0,0,0,9999,0,4028694528,26.73,28.11,0
31803521,33700,2015:10:18:0:0:33,0,0,0,0,0,0,0,0,0,9999,0,4028694528,26.73,28.11,0
31903423,33800,2015:10:18:0:0:33,0,0,0,0,0,0,0,0,0,9999,0,4028694528,26.73,28.11,0
32003588,33900,2015:10:18:0:0:33,0,0,0,0,0,0,0,0,0,9999,0,4028694528,26.71,27.99,0
32103692,34000,2015:10:18:0:0:34,0,0,0,0,0,0,0,0,0,9999,0,4028760064,26.71,27.99,0
32203595,34100,2015:10:18:0:0:34,0,0,0,0,0,0,0,0,0,9999,0,4028760064,26.71,27.99,0
32303606,34200,2015:10:18:0:0:34,0,0,0,0,0,0,0,0,0,9999,0,4028760064,26.71,27.99,0
32403591,34300,2015:10:18:0:0:34,0,0,0,0,0,0,0,0,0,9999,0,4028760064,26.71,27.99,0
32503587,34400,2015:10:18:0:0:34,0,0,0,0,0,0,0,0,0,9999,0,4028760064,26.71,27.99,1
32604630,34500,2015:10:18:0:0:34,0,0,0,0,0,0,0,0,0,9999,0,4028760064,26.71,27.99,1
32703618,34600,2015:10:18:0:0:34,0,0,0,0,0,0,0,0,0,9999,0,4028760064,26.71,28.13,1
32803631,34700,2015:10:18:0:0:34,0,0,0,0,0,0,0,0,0,9999,0,4028760064,26.71,28.13,1
32903750,34800,2015:10:18:0:0:34,0,0,0,0,0,0,0,0,0,9999,0,4028760064,26.71,28.13,1
33003686,34900,2015:10:18:0:0:34,0,0,0,0,0,0,0,0,0,9999,0,4028760064,26.71,28.13,1
33103635,35000,2015:10:18:0:0:35,0,0,0,0,0,0,0,0,0,9999,0,4028825600,26.71,28.13,1
33203554,35100,2015:10:18:0:0:35,0,0,0,0,0,0,0,0,0,9999,0,4028825600,26.71,28.13,1
33303752,35200,2015:10:18:0:0:35,0,0,0,0,0,0,0,0,0,9999,0,4028825600,26.71,28.13,1
33403761,35300,2015:10:18:0:0:35,0,0,0,0,0,0,0,0,0,9999,0,4028825600,26.71,28.13,1
33503769,35400,2015:10:18:0:0:35,0,0,0,0,0,0,0,0,0,9999,0,4028825600,26.69,28.07,0
33603760,35500,2015:10:18:0:0:35,0,0,0,0,0,0,0,0,0,9999,0,4028825600,26.69,28.07,0
33703873,35600,2015:10:18:0:0:35,0,0,0,0,0,0,0,0,0,9999,0,4028825600,26.69,28.07,0
33803814,35700,2015:10:18:0:0:35,0,0,0,0,0,0,0,0,0,9999,0,4028825600,26.69,28.07,0
33903789,35800,2015:10:18:0:0:35,0,0,0,0,0,0,0,0,0,9999,0,4028825600,26.69,28.07,0
34003809,35900,2015:10:18:0:0:35,0,0,0,0,0,0,0,0,0,9999,0,4028825600,26.69,28.07,0
34104712,36000,2015:10:18:0:0:36,0,0,0,0,0,0,0,0,0,9999,0,4028891136,26.69,28.07,0
34204298,36100,2015:10:18:0:0:36,0,0,0,0,0,0,0,0,0,9999,0,4028891136,26.71,28.45,0
34304746,36200,2015:10:18:0:0:36,0,0,0,0,0,0,0,0,0,9999,0,4028891136,26.71,28.45,0
34403855,36300,2015:10:18:0:0:36,0,0,0,0,0,0,0,0,0,9999,0,4028891136,26.71,28.45,0
34504737,36400,2015:10:18:0:0:36,0,0,0,0,0,0,0,0,0,9999,0,4028891136,26.71,28.45,1
34603907,36500,2015:10:18:0:0:36,0,0,0,0,0,0,0,0,0,9999,0,4028891136,26.71,28.45,1
34704782,36600,2015:10:18:0:0:36,0,0,0,0,0,0,0,0,0,9999,0,4028891136,26.71,28.45,1
34803899,36700,2015:10:18:0:0:36,0,0,0,0,0,0,0,0,0,9999,0,4028891136,26.71,28.45,1
34904796,36800,2015:10:18:0:0:36,0,0,0,0,0,0,0,0,0,9999,0,4028891136,26.71,28.45,1
35003918,36900,2015:10:18:0:0:36,0,0,0,0,0,0,0,0,0,9999,0,4028891136,26.79,29.63,1
35104830,37000,2015:10:18:0:0:37,0,0,0,0,0,0,0,0,0,9999,0,4028956672,26.79,29.63,1
35203943,37100,2015:10:18:0:0:37,0,0,0,0,0,0,0,0,0,9999,0,4028956672,26.79,29.63,1
35304953,37200,2015:10:18:0:0:37,0,0,0,0,0,0,0,0,0,9999,0,4028956672,26.79,29.63,1
35403974,37300,2015:10:18:0:0:37,0,0,0,0,0,0,0,0,0,9999,0,4028956672,26.79,29.63,1
35504855,37400,2015:10:18:0:0:37,0,0,0,0,0,0,0,0,0,9999,0,4028956672,26.79,29.63,1
35603976,37500,2015:10:18:0:0:37,0,0,0,0,0,0,0,0,0,9999,0,4028956672,26.79,29.63,1
35704878,37600,2015:10:18:0:0:37,0,0,0,0,0,0,0,0,0,9999,0,4028956672,26.79,29.63,1
35803885,37700,2015:10:18:0:0:37,0,0,0,0,0,0,0,0,0,9999,0,4028956672,26.79,30.33,1
35904916,37800,2015:10:18:0:0:37,0,0,0,0,0,0,0,0,0,9999,0,4028956672,26.79,30.33,1
36004025,37900,2015:10:18:0:0:37,0,0,0,0,0,0,0,0,0,9999,0,4028956672,26.79,30.33,1
36105025,38000,2015:10:18:0:0:38,0,0,0,0,0,0,0,0,0,9999,0,4029022208,26.79,30.33,1
36204067,38100,2015:10:18:0:0:38,0,0,0,0,0,0,0,0,0,9999,0,4029022208,26.79,30.33,1
36304944,38200,2015:10:18:0:0:38,0,0,0,0,0,0,0,0,0,9999,0,4029022208,26.79,30.33,1
36404058,38300,2015:10:18:0:0:38,0,0,0,0,0,0,0,0,0,9999,0,4029022208,26.79,30.33,1
36504966,38400,2015:10:18:0:0:38,0,0,0,0,0,0,0,0,0,9999,0,4029022208,26.71,30.37,1
36604091,38500,2015:10:18:0:0:38,0,0,0,0,0,0,0,0,0,9999,0,4029022208,26.71,30.37,1
36704996,38600,2015:10:18:0:0:38,0,0,0,0,0,0,0,0,0,9999,0,4029022208,26.71,30.37,1
36804066,38700,2015:10:18:0:0:38,0,0,0,0,0,0,0,0,0,9999,0,4029022208,26.71,30.37,1
36904184,38800,2015:10:18:0:0:38,0,0,0,0,0,0,0,0,0,9999,0,4029022208,26.71,30.37,1
37004089,38900,2015:10:18:0:0:38,0,0,0,0,0,0,0,0,0,9999,0,4029022208,26.71,30.37,1
37104979,39000,2015:10:18:0:0:39,0,0,0,0,0,0,0,0,0,9999,0,4029087744,26.71,30.37,1
37204110,39100,2015:10:18:0:0:39,0,0,0,0,0,0,0,0,0,9999,0,4029087744,26.71,30.37,1
37304988,39200,2015:10:18:0:0:39,0,0,0,0,0,0,0,0,0,9999,0,4029087744,26.73,28.13,1
37404084,39300,2015:10:18:0:0:39,0,0,0,0,0,0,0,0,0,9999,0,4029087744,26.73,28.13,1
37504155,39400,2015:10:18:0:0:39,0,0,0,0,0,0,0,0,0,9999,0,4029087744,26.73,28.13,1
37604151,39500,2015:10:18:0:0:39,0,0,0,0,0,0,0,0,0,9999,0,4029087744,26.73,28.13,1
37704282,39600,2015:10:18:0:0:39,0,0,0,0,0,0,0,0,0,9999,0,4029087744,26.73,28.13,1
37804222,39700,2015:10:18:0:0:39,0,0,0,0,0,0,0,0,0,9999,0,4029087744,26.73,28.13,1
37904192,39800,2015:10:18:0:0:39,0,0,0,0,0,0,0,0,0,9999,0,4029087744,26.73,28.13,1
38004188,39900,2015:10:18:0:0:39,0,0,0,0,0,0,0,0,0,9999,0,4029087744,27.29,27.85,1
38104204,40000,2015:10:18:0:0:40,0,0,0,0,0,0,0,0,0,9999,0,4029153280,27.29,27.85,1
38204017,40100,2015:10:18:0:0:40,0,0,0,0,0,0,0,0,0,9999,0,4029153280,27.29,27.85,1
38304040,40200,2015:10:18:0:0:40,0,0,0,0,0,0,0,0,0,9999,0,4029153280,27.29,27.85,1
38404047,40300,2015:10:18:0:0:40,0,0,0,0,0,0,0,0,0,9999,0,4029153280,27.29,27.85,1
38504200,40400,2015:10:18:0:0:40,0,0,0,0,0,0,0,0,0,9999,0,4029153280,27.29,27.85,1
38605066,40500,2015:10:18:0:0:40,0,0,0,0,0,0,0,0,0,9999,0,4029153280,27.29,27.85,1
